<?xml version="1.0" encoding="utf-8"?>
<!-- Generator: Adobe Illustrator 16.0.0, SVG Export Plug-In . SVG Version: 6.00 Build 0)  -->
<!DOCTYPE svg PUBLIC "-//W3C//DTD SVG 1.1//EN" "http://www.w3.org/Graphics/SVG/1.1/DTD/svg11.dtd">
<svg version="1.1" id="Capa_1" xmlns="http://www.w3.org/2000/svg" xmlns:xlink="http://www.w3.org/1999/xlink" x="0px" y="0px"
	 width="512px" height="512px" viewBox="0 0 512 512" enable-background="new 0 0 512 512" xml:space="preserve">
<g>
	<path fill="#FFFFFF" d="M256,512c-68.379,0-132.668-26.629-181.02-74.98S0,324.379,0,256S26.629,123.332,74.98,74.98
		S187.621,0,256,0s132.668,26.629,181.02,74.98S512,187.621,512,256s-26.629,132.668-74.98,181.02S324.379,512,256,512z M256,40
		C136.898,40,40,136.898,40,256s96.898,216,216,216s216-96.898,216-216S375.102,40,256,40z M337.5,256L218.131,136.631
		l-24.416,24.416L288.668,256l-94.953,94.953l24.416,24.416L337.5,256z"/>
</g>
</svg>
